"0","crea_grafos(7, cd_data$age, ""Variable age"", ""age"", ""Frecuencia"")"
"1","   Min. "
"1","1st Qu. "
"1"," Median "
"1","   Mean "
"1","3rd Qu. "
"1","   Max. "
"1","
"
"1","  29.00 "
"1","  47.50 "
"1","  55.00 "
"1","  54.37 "
"1","  61.00 "
"1","  77.00 "
"1","
"
