"0","# Generación de 2 números para que se impriman los dos conjuntos de gráficos."
"0","# No se ha logrado modularizar, aún, esta parte y por ello se repite para todos"
"0","# los gráficos."
"0","for(i in 1:2){"
"0","  if(i == 1){"
"0","    # tipo toma los valores de ""f"" y ""t"" para formar los distintos tipos de "
"0","    # gráficos que serán categorizados en ""fbs"" y ""target"" respectivamente."
"0","    tipo <- f"
"0","    # Título personalizado para cada conjunto de gráficos."
"0","    titulo <- ""Histogramas de fbs"""
"0","  }"
"0","  else if(i == 2){"
"0","    tipo <- t"
"0","    titulo <- ""Histogramas de target"""
"0","  }"
"0","  "
"0","  # Parámetros de ambos histogramas."
"0","  age <- crea_grafos(cd_data2$age, ""Age"", h, tipo)"
"0","  trestbps <- crea_grafos(cd_data2$trestbps, ""Trestbps"", h, tipo)"
"0","  chol <- crea_grafos(cd_data2$chol, ""Chol (mg/dL)"", h, tipo)"
"0","  thalach <- crea_grafos(cd_data2$thalach, ""Thalach"", h, tipo)"
"0","  oldpeak <- crea_grafos(cd_data2$oldpeak, ""Oldpeak"", h, tipo, TRUE)"
"0","  "
"0","  # Impresión de ambos histogramas."
"0","  grid.arrange(age + ggtitle(""""),"
"0","               trestbps + ggtitle(""""),"
"0","               chol + ggtitle(""""),"
"0","               thalach + ggtitle(""""),"
"0","               oldpeak + ggtitle(""""),"
"0","               nrow = 2,"
"0","               top = textGrob(titulo,"
"0","                            gp=gpar(frontsize=14))"
"0","               )"
"0","}"
