"0","# Obtención del dataset."
"0","cardiovascular_disease <- ""datasets_heart.csv"""
"0",""
"0","# Lectura del dataset y definición de cd_data (""Cardiovascular Disease Data)."
"0","cd_data <- read.csv(cardiovascular_disease, sep="","")"
