"0","# Parámetro ejercicio funciona como un identificador para graficar lo"
"0","# solicitado en el punto 7, 8 y 9."
"0","crea_grafos <- function(ejercicio, columna, titulo, var_x){"
"0",""
"0","  var_y <- ""Frecuencia"""
"0","  "
"0","  if(ejercicio == 7){"
"0","    # Se decreta que los gráficos se verán uno en cada lado."
"0","    par(mfrow=c(1,2))"
"0","    "
"0","    # Generación de diagramas de caja."
"0","    plot(x=columna, main=titulo, xlab=var_y, ylab=var_x)"
"0","    # Generación de histogramas."
"0","    hist(x=columna, main=titulo, xlab=var_x, ylab=var_y)"
"0","  }"
"0","  "
"0","  if(ejercicio == 8){"
"0","    # Generación de diagramas de caja."
"0","    plot(x=columna, main=titulo, xlab=var_x, ylab=var_y)"
"0","    "
"0","    # Resumen estadístico de la columna."
"0","    summary(columna)"
"0","  }"
"0","  "
"0","  if(ejercicio == 9){"
"0","    ggplot(mapping=aes(x=cd_data$age)) + "
"0","      geom_density() + "
"0","      ggtitle(titulo) +"
"0","      xlab(var_x) +"
"0","      ylab(var_y)"
"0","  }"
"0","  "
"0","  if(ejercicio == 10){"
"0","    # Identificación de los outliers e impresión del boxplot"
"0","    outliers <- boxplot(columna, main=titulo, ylab=var_x)$out"
"0","    print(outliers)"
"0","  }"
"0","}"
