"0","# Generación gráfico ""plot""."
"0","plot(cd_data$sex)"
"2","no non-missing arguments to min; returning Inf"
"2","no non-missing arguments to max; returning -Inf"
"2","Error in plot.window(...) : need finite 'ylim' values
"
