"0","reemplaza_out <- function(columna, titulo, var_y){"
"0",""
"0","# Obtención de valores outliers."
"0","outliers <- boxplot.stats(columna)$out"
"0",""
"0","# Sintaxis que reemplaza valores outliers por ""NA""."
"0","columna <- ifelse(columna %in%"
"0","                    outliers,"
"0","                    # TRUE: NA, FALSE: Mismo resultado"
"0","                    NA, columna)"
"0",""
"0","# Generación del gráfico sin outliers."
"0","boxplot(columna, main=titulo, ylab=var_y)"
"0","}"
