"0","# Obtención del dataset."
"0","cardiovascular_disease_V2 <- ""data_depurado.csv"""
"0",""
"0","# Lectura del dataset y definición de cd_data (""Cardiovascular Disease Data)."
"0","cd_data <- read.csv(cardiovascular_disease_V2, sep = "","")"
"0",""
"0","# Se elimina columna X creada por error."
"0","cd_data$X <- NULL"
"0",""
"0","#str(cd_data)"
