"0","crea_scatter <- function(columna1, columna2, nombre_x, nombre_y, "
"0","                         tipo, legend=FALSE){"
"0","  # Leyenda se ubica a la derecha de los gráficos."
"0","  if(legend){"
"0","    show_legend = theme(legend.position = ""right"")"
"0","  }"
"0","  else{"
"0","    show_legend = theme(legend.position = ""none"")"
"0","  }"
"0","  "
"0","  # Scatterplots para la variable ""fbs""."
"0","  if(tipo == f){"
"0","    ggplot(data=cd_data2, aes(x=columna1, y=columna2)) +"
"0","      geom_point(aes(color=fbs, shape=fbs)) +"
"0","      xlab(nombre_x) +"
"0","      ylab(nombre_y) +"
"0","      geom_smooth(method = ""lm"") +"
"0","      ggtitle(titulo) +"
"0","      show_legend"
"0","  }"
"0","  # Scatterplots para la variable ""target""."
"0","    else if(tipo == t){"
"0","      ggplot(data=cd_data2, aes(x=columna1, y=columna2)) +"
"0","        geom_point(aes(color=target, shape=t)) +"
"0","        xlab(nombre_x) +"
"0","        ylab(nombre_y) +"
"0","        geom_smooth(method = ""lm"") +"
"0","        ggtitle(titulo) +"
"0","        show_legend"
"0","    }"
"0","}"
"0",""
