"0","for(i in 1:2){"
"0","  if(i == 1){"
"0","    var <- f"
"0","    titulo <- ""Violinplots de fbs"""
"0","  }"
"0","  else if(i == 2){"
"0","    var <- t"
"0","    titulo <- ""Violinplots de target"""
"0","  }"
"0","  "
"0","  age <- crea_grafos(cd_data$age, ""Age"", v, var)"
"0","  trestbps <- crea_grafos(cd_data$trestbps, ""Trestbps"", v, var)"
"0","  chol <- crea_grafos(cd_data$chol, ""Chol (mg/dL)"", v, var)"
"0","  thalach <- crea_grafos(cd_data$thalach, ""Thalach"", v, var)"
"0","  oldpeak <- crea_grafos(cd_data$oldpeak, ""Oldpeak"", v, var, TRUE)"
"0",""
"0","  grid.arrange(age + ggtitle(""""),"
"0","               trestbps + ggtitle(""""),"
"0","               chol + ggtitle(""""),"
"0","               thalach + ggtitle(""""),"
"0","               oldpeak + ggtitle(""""),"
"0","               nrow = 2,"
"0","               top = textGrob(titulo,"
"0","                            gp=gpar(frontsize=14))"
"0","               )"
"0","}"
