"0",""
"0","for(i in 1:2){"
"0","  if(i == 1){"
"0","    age <- crea_grafos(cd_data$age, ""Age"", h, f)"
"0","    trestbps <- crea_grafos(cd_data$trestbps, ""Trestbps"", h, f)"
"0","    chol <- crea_grafos(cd_data$chol, ""Chol (mg/dL)"", h, f)"
"0","    thalach <- crea_grafos(cd_data$thalach, ""Thalach"", h, f)"
"0","    oldpeak <- crea_grafos(cd_data$oldpeak, ""Oldpeak"", h, f, TRUE)"
"0","    titulo = ""Histogramas fbs"""
"0","  }"
"0","  "
"0","  else if(i == 2){"
"0","    age <- crea_grafos(cd_data$age, ""Age"", h, t)"
"0","    trestbps <- crea_grafos(cd_data$trestbps, ""Trestbps"", h, t)"
"0","    chol <- crea_grafos(cd_data$chol, ""Chol (mg/dL)"", h, t)"
"0","    thalach <- crea_grafos(cd_data$thalach, ""Thalach"", h, t)"
"0","    oldpeak <- crea_grafos(cd_data$oldpeak, ""Oldpeak"", h, t, TRUE)"
"0","    titulo = ""Histogramas target"""
"0","  }"
"0","  grid.arrange(age + ggtitle(""""),"
"0","               trestbps + ggtitle(""""),"
"0","               chol + ggtitle(""""),"
"0","               thalach + ggtitle(""""),"
"0","               oldpeak + ggtitle(""""),"
"0","               nrow = 2,"
"0","               top = textGrob(titulo,"
"0","                            gp=gpar(frontsize=14))"
"0","               )"
"0","}"
"0",""
