"0",""
"0","for(i in 1:2){"
"0","  if(i == 1){"
"0","    age <- crea_grafos(cd_data$age, ""Age"", ""density"", ""fbs"")"
"0","    trestbps <- crea_grafos(cd_data$trestbps, ""Trestbps"", ""density"", ""fbs"")"
"0","    chol <- crea_grafos(cd_data$chol, ""Chol (mg/dL)"", ""density"", ""fbs"")"
"0","    thalach <- crea_grafos(cd_data$thalach, ""Thalach"", ""density"", ""fbs"")"
"0","    oldpeak <- crea_grafos(cd_data$oldpeak, ""Oldpeak"", ""density"", ""fbs"", TRUE)"
"0","    titulo = ""Diagramas de densidad de fbs"""
"0","  }"
"0","  "
"0","  else if(i == 2){"
"0","    age <- crea_grafos(cd_data$age, ""Age"", ""density"", ""target"")"
"0","    trestbps <- crea_grafos(cd_data$trestbps, ""Trestbps"", ""density"", ""target"")"
"0","    chol <- crea_grafos(cd_data$chol, ""Chol (mg/dL)"", ""density"", ""target"")"
"0","    thalach <- crea_grafos(cd_data$thalach, ""Thalach"", ""density"", ""target"")"
"0","    oldpeak <- crea_grafos(cd_data$oldpeak, ""Oldpeak"", ""density"", ""target"", TRUE)"
"0","    titulo = ""Diagramas de densidad de target"""
"0","  }"
"0","  grid.arrange(age + ggtitle(""""),"
"0","               trestbps + ggtitle(""""),"
"0","               chol + ggtitle(""""),"
"0","               thalach + ggtitle(""""),"
"0","               oldpeak + ggtitle(""""),"
"0","               nrow = 2,"
"0","               top = textGrob(titulo,"
"0","                            gp=gpar(frontsize=14))"
"0","               )"
"0","}"
"2","the condition has length > 1 and only the first element will be used"
"2","the condition has length > 1 and only the first element will be used"
"2","the condition has length > 1 and only the first element will be used"
"2","the condition has length > 1 and only the first element will be used"
"2","the condition has length > 1 and only the first element will be used"
"2","the condition has length > 1 and only the first element will be used"
"2","the condition has length > 1 and only the first element will be used"
"2","the condition has length > 1 and only the first element will be used"
"2","the condition has length > 1 and only the first element will be used"
"2","the condition has length > 1 and only the first element will be used"
