"0","# Subdataset para mayores de edad."
"0","mayores18 <- subset(cd_data, age >= 18)"
"0","# Subdataset para menores de edad."
"0","menores18 <- subset(cd_data, age < 18) "
"0",""
"0","print(mayores18$age)"
"1","character(0)
"
"0","print(menores18$age)"
"1","character(0)
"
