"0","# Elemento fuera de rango de la variable ""ca""."
"0","ca_out <- 4"
"0","# Si existe ""match"", se cambiará su valor por NA"
"0","cd_data$ca[cd_data$ca==ca_out] <- NA"
"0",""
"0","# Generación del gráfico reutilizando la función. "
"0","crea_grafos(8, cd_data$ca, ""Variable ca"", "
"0","            ""N° de vasos coloreados por flourosopía"")"
