"0","as.character(cd_data$sex)"
"1","  [1]"
"1"," NA"
"1"," NA"
"1"," NA"
"1"," NA"
"1"," NA"
"1"," NA"
"1"," NA"
"1"," NA"
"1"," NA"
"1"," NA"
"1"," NA"
"1"," NA"
"1"," NA"
"1"," NA"
"1"," NA"
"1"," NA"
"1"," NA"
"1"," NA"
"1"," NA"
"1"," NA"
"1"," NA"
"1"," NA"
"1"," NA"
"1"," NA"
"1"," NA"
"1"," NA"
"1"," NA"
"1"," NA"
"1"," NA"
"1"," NA"
"1"," NA"
"1"," NA"
"1"," NA"
"1"," NA"
"1"," NA"
"1"," NA"
"1"," NA"
"1"," NA"
"1"," NA"
"1"," NA"
"1"," NA"
"1"," NA"
"1","
"
"1"," [43]"
"1"," NA"
"1"," NA"
"1"," NA"
"1"," NA"
"1"," NA"
"1"," NA"
"1"," NA"
"1"," NA"
"1"," NA"
"1"," NA"
"1"," NA"
"1"," NA"
"1"," NA"
"1"," NA"
"1"," NA"
"1"," NA"
"1"," NA"
"1"," NA"
"1"," NA"
"1"," NA"
"1"," NA"
"1"," NA"
"1"," NA"
"1"," NA"
"1"," NA"
"1"," NA"
"1"," NA"
"1"," NA"
"1"," NA"
"1"," NA"
"1"," NA"
"1"," NA"
"1"," NA"
"1"," NA"
"1"," NA"
"1"," NA"
"1"," NA"
"1"," NA"
"1"," NA"
"1"," NA"
"1"," NA"
"1"," NA"
"1","
"
"1"," [85]"
"1"," NA"
"1"," NA"
"1"," NA"
"1"," NA"
"1"," NA"
"1"," NA"
"1"," NA"
"1"," NA"
"1"," NA"
"1"," NA"
"1"," NA"
"1"," NA"
"1"," NA"
"1"," NA"
"1"," NA"
"1"," NA"
"1"," NA"
"1"," NA"
"1"," NA"
"1"," NA"
"1"," NA"
"1"," NA"
"1"," NA"
"1"," NA"
"1"," NA"
"1"," NA"
"1"," NA"
"1"," NA"
"1"," NA"
"1"," NA"
"1"," NA"
"1"," NA"
"1"," NA"
"1"," NA"
"1"," NA"
"1"," NA"
"1"," NA"
"1"," NA"
"1"," NA"
"1"," NA"
"1"," NA"
"1"," NA"
"1","
"
"1","[127]"
"1"," NA"
"1"," NA"
"1"," NA"
"1"," NA"
"1"," NA"
"1"," NA"
"1"," NA"
"1"," NA"
"1"," NA"
"1"," NA"
"1"," NA"
"1"," NA"
"1"," NA"
"1"," NA"
"1"," NA"
"1"," NA"
"1"," NA"
"1"," NA"
"1"," NA"
"1"," NA"
"1"," NA"
"1"," NA"
"1"," NA"
"1"," NA"
"1"," NA"
"1"," NA"
"1"," NA"
"1"," NA"
"1"," NA"
"1"," NA"
"1"," NA"
"1"," NA"
"1"," NA"
"1"," NA"
"1"," NA"
"1"," NA"
"1"," NA"
"1"," NA"
"1"," NA"
"1"," NA"
"1"," NA"
"1"," NA"
"1","
"
"1","[169]"
"1"," NA"
"1"," NA"
"1"," NA"
"1"," NA"
"1"," NA"
"1"," NA"
"1"," NA"
"1"," NA"
"1"," NA"
"1"," NA"
"1"," NA"
"1"," NA"
"1"," NA"
"1"," NA"
"1"," NA"
"1"," NA"
"1"," NA"
"1"," NA"
"1"," NA"
"1"," NA"
"1"," NA"
"1"," NA"
"1"," NA"
"1"," NA"
"1"," NA"
"1"," NA"
"1"," NA"
"1"," NA"
"1"," NA"
"1"," NA"
"1"," NA"
"1"," NA"
"1"," NA"
"1"," NA"
"1"," NA"
"1"," NA"
"1"," NA"
"1"," NA"
"1"," NA"
"1"," NA"
"1"," NA"
"1"," NA"
"1","
"
"1","[211]"
"1"," NA"
"1"," NA"
"1"," NA"
"1"," NA"
"1"," NA"
"1"," NA"
"1"," NA"
"1"," NA"
"1"," NA"
"1"," NA"
"1"," NA"
"1"," NA"
"1"," NA"
"1"," NA"
"1"," NA"
"1"," NA"
"1"," NA"
"1"," NA"
"1"," NA"
"1"," NA"
"1"," NA"
"1"," NA"
"1"," NA"
"1"," NA"
"1"," NA"
"1"," NA"
"1"," NA"
"1"," NA"
"1"," NA"
"1"," NA"
"1"," NA"
"1"," NA"
"1"," NA"
"1"," NA"
"1"," NA"
"1"," NA"
"1"," NA"
"1"," NA"
"1"," NA"
"1"," NA"
"1"," NA"
"1"," NA"
"1","
"
"1","[253]"
"1"," NA"
"1"," NA"
"1"," NA"
"1"," NA"
"1"," NA"
"1"," NA"
"1"," NA"
"1"," NA"
"1"," NA"
"1"," NA"
"1"," NA"
"1"," NA"
"1"," NA"
"1"," NA"
"1"," NA"
"1"," NA"
"1"," NA"
"1"," NA"
"1"," NA"
"1"," NA"
"1"," NA"
"1"," NA"
"1"," NA"
"1"," NA"
"1"," NA"
"1"," NA"
"1"," NA"
"1"," NA"
"1"," NA"
"1"," NA"
"1"," NA"
"1"," NA"
"1"," NA"
"1"," NA"
"1"," NA"
"1"," NA"
"1"," NA"
"1"," NA"
"1"," NA"
"1"," NA"
"1"," NA"
"1"," NA"
"1","
"
"1","[295]"
"1"," NA"
"1"," NA"
"1"," NA"
"1"," NA"
"1"," NA"
"1"," NA"
"1"," NA"
"1"," NA"
"1"," NA"
"1","
"
"0","as.character(cd_data$cp)"
"1","  [1]"
"1"," "","""
"1"," "","""
"1"," "","""
"1"," "","""
"1"," "","""
"1"," "","""
"1"," "","""
"1"," "","""
"1"," "","""
"1"," "","""
"1"," "","""
"1"," "","""
"1"," "","""
"1"," "","""
"1"," "","""
"1"," "","""
"1"," "","""
"1"," "","""
"1"," "","""
"1"," "","""
"1"," "","""
"1"," "","""
"1"," "","""
"1"," "","""
"1"," "","""
"1"," "","""
"1"," "","""
"1"," "","""
"1"," "","""
"1"," "","""
"1"," "","""
"1","
"
"1"," [32]"
"1"," "","""
"1"," "","""
"1"," "","""
"1"," "","""
"1"," "","""
"1"," "","""
"1"," "","""
"1"," "","""
"1"," "","""
"1"," "","""
"1"," "","""
"1"," "","""
"1"," "","""
"1"," "","""
"1"," "","""
"1"," "","""
"1"," "","""
"1"," "","""
"1"," "","""
"1"," "","""
"1"," "","""
"1"," "","""
"1"," "","""
"1"," "","""
"1"," "","""
"1"," "","""
"1"," "","""
"1"," "","""
"1"," "","""
"1"," "","""
"1"," "","""
"1","
"
"1"," [63]"
"1"," "","""
"1"," "","""
"1"," "","""
"1"," "","""
"1"," "","""
"1"," "","""
"1"," "","""
"1"," "","""
"1"," "","""
"1"," "","""
"1"," "","""
"1"," "","""
"1"," "","""
"1"," "","""
"1"," "","""
"1"," "","""
"1"," "","""
"1"," "","""
"1"," "","""
"1"," "","""
"1"," "","""
"1"," "","""
"1"," "","""
"1"," "","""
"1"," "","""
"1"," "","""
"1"," "","""
"1"," "","""
"1"," "","""
"1"," "","""
"1"," "","""
"1","
"
"1"," [94]"
"1"," "","""
"1"," "","""
"1"," "","""
"1"," "","""
"1"," "","""
"1"," "","""
"1"," "","""
"1"," "","""
"1"," "","""
"1"," "","""
"1"," "","""
"1"," "","""
"1"," "","""
"1"," "","""
"1"," "","""
"1"," "","""
"1"," "","""
"1"," "","""
"1"," "","""
"1"," "","""
"1"," "","""
"1"," "","""
"1"," "","""
"1"," "","""
"1"," "","""
"1"," "","""
"1"," "","""
"1"," "","""
"1"," "","""
"1"," "","""
"1"," "","""
"1","
"
"1","[125]"
"1"," "","""
"1"," "","""
"1"," "","""
"1"," "","""
"1"," "","""
"1"," "","""
"1"," "","""
"1"," "","""
"1"," "","""
"1"," "","""
"1"," "","""
"1"," "","""
"1"," "","""
"1"," "","""
"1"," "","""
"1"," "","""
"1"," "","""
"1"," "","""
"1"," "","""
"1"," "","""
"1"," "","""
"1"," "","""
"1"," "","""
"1"," "","""
"1"," "","""
"1"," "","""
"1"," "","""
"1"," "","""
"1"," "","""
"1"," "","""
"1"," "","""
"1","
"
"1","[156]"
"1"," "","""
"1"," "","""
"1"," "","""
"1"," "","""
"1"," "","""
"1"," "","""
"1"," "","""
"1"," "","""
"1"," "","""
"1"," "","""
"1"," "","""
"1"," "","""
"1"," "","""
"1"," "","""
"1"," "","""
"1"," "","""
"1"," "","""
"1"," "","""
"1"," "","""
"1"," "","""
"1"," "","""
"1"," "","""
"1"," "","""
"1"," "","""
"1"," "","""
"1"," "","""
"1"," "","""
"1"," "","""
"1"," "","""
"1"," "","""
"1"," "","""
"1","
"
"1","[187]"
"1"," "","""
"1"," "","""
"1"," "","""
"1"," "","""
"1"," "","""
"1"," "","""
"1"," "","""
"1"," "","""
"1"," "","""
"1"," "","""
"1"," "","""
"1"," "","""
"1"," "","""
"1"," "","""
"1"," "","""
"1"," "","""
"1"," "","""
"1"," "","""
"1"," "","""
"1"," "","""
"1"," "","""
"1"," "","""
"1"," "","""
"1"," "","""
"1"," "","""
"1"," "","""
"1"," "","""
"1"," "","""
"1"," "","""
"1"," "","""
"1"," "","""
"1","
"
"1","[218]"
"1"," "","""
"1"," "","""
"1"," "","""
"1"," "","""
"1"," "","""
"1"," "","""
"1"," "","""
"1"," "","""
"1"," "","""
"1"," "","""
"1"," "","""
"1"," "","""
"1"," "","""
"1"," "","""
"1"," "","""
"1"," "","""
"1"," "","""
"1"," "","""
"1"," "","""
"1"," "","""
"1"," "","""
"1"," "","""
"1"," "","""
"1"," "","""
"1"," "","""
"1"," "","""
"1"," "","""
"1"," "","""
"1"," "","""
"1"," "","""
"1"," "","""
"1","
"
"1","[249]"
"1"," "","""
"1"," "","""
"1"," "","""
"1"," "","""
"1"," "","""
"1"," "","""
"1"," "","""
"1"," "","""
"1"," "","""
"1"," "","""
"1"," "","""
"1"," "","""
"1"," "","""
"1"," "","""
"1"," "","""
"1"," "","""
"1"," "","""
"1"," "","""
"1"," "","""
"1"," "","""
"1"," "","""
"1"," "","""
"1"," "","""
"1"," "","""
"1"," "","""
"1"," "","""
"1"," "","""
"1"," "","""
"1"," "","""
"1"," "","""
"1"," "","""
"1","
"
"1","[280]"
"1"," "","""
"1"," "","""
"1"," "","""
"1"," "","""
"1"," "","""
"1"," "","""
"1"," "","""
"1"," "","""
"1"," "","""
"1"," "","""
"1"," "","""
"1"," "","""
"1"," "","""
"1"," "","""
"1"," "","""
"1"," "","""
"1"," "","""
"1"," "","""
"1"," "","""
"1"," "","""
"1"," "","""
"1"," "","""
"1"," "","""
"1"," "","""
"1","
"
"0","as.character(cd_data$fbs)"
"1","  [1]"
"1"," ""1"""
"1"," ""0"""
"1"," ""0"""
"1"," ""0"""
"1"," ""0"""
"1"," ""0"""
"1"," ""0"""
"1"," ""0"""
"1"," ""1"""
"1"," ""0"""
"1"," ""0"""
"1"," ""0"""
"1"," ""0"""
"1"," ""0"""
"1"," ""1"""
"1"," ""0"""
"1"," ""0"""
"1"," ""0"""
"1"," ""0"""
"1"," ""0"""
"1"," ""0"""
"1"," ""0"""
"1"," ""0"""
"1"," ""1"""
"1"," ""0"""
"1"," ""0"""
"1"," ""1"""
"1"," ""0"""
"1"," ""1"""
"1"," ""1"""
"1"," ""0"""
"1","
"
"1"," [32]"
"1"," ""0"""
"1"," ""0"""
"1"," ""0"""
"1"," ""0"""
"1"," ""0"""
"1"," ""1"""
"1"," ""0"""
"1"," ""0"""
"1"," ""0"""
"1"," ""0"""
"1"," ""0"""
"1"," ""0"""
"1"," ""0"""
"1"," ""0"""
"1"," ""0"""
"1"," ""0"""
"1"," ""0"""
"1"," ""0"""
"1"," ""0"""
"1"," ""0"""
"1"," ""0"""
"1"," ""0"""
"1"," ""0"""
"1"," ""0"""
"1"," ""0"""
"1"," ""0"""
"1"," ""0"""
"1"," ""0"""
"1"," ""0"""
"1"," ""1"""
"1"," ""0"""
"1","
"
"1"," [63]"
"1"," ""0"""
"1"," ""0"""
"1"," ""1"""
"1"," ""0"""
"1"," ""0"""
"1"," ""0"""
"1"," ""0"""
"1"," ""0"""
"1"," ""0"""
"1"," ""0"""
"1"," ""0"""
"1"," ""0"""
"1"," ""0"""
"1"," ""0"""
"1"," ""1"""
"1"," ""0"""
"1"," ""1"""
"1"," ""0"""
"1"," ""0"""
"1"," ""0"""
"1"," ""0"""
"1"," ""1"""
"1"," ""0"""
"1"," ""0"""
"1"," ""0"""
"1"," ""1"""
"1"," ""0"""
"1"," ""0"""
"1"," ""1"""
"1"," ""0"""
"1"," ""0"""
"1","
"
"1"," [94]"
"1"," ""1"""
"1"," ""0"""
"1"," ""0"""
"1"," ""0"""
"1"," ""1"""
"1"," ""0"""
"1"," ""1"""
"1"," ""0"""
"1"," ""0"""
"1"," ""0"""
"1"," ""1"""
"1"," ""0"""
"1"," ""0"""
"1"," ""1"""
"1"," ""0"""
"1"," ""0"""
"1"," ""0"""
"1"," ""0"""
"1"," ""1"""
"1"," ""0"""
"1"," ""0"""
"1"," ""0"""
"1"," ""0"""
"1"," ""0"""
"1"," ""0"""
"1"," ""0"""
"1"," ""0"""
"1"," ""0"""
"1"," ""0"""
"1"," ""0"""
"1"," ""0"""
"1","
"
"1","[125]"
"1"," ""0"""
"1"," ""0"""
"1"," ""0"""
"1"," ""0"""
"1"," ""0"""
"1"," ""0"""
"1"," ""0"""
"1"," ""0"""
"1"," ""0"""
"1"," ""0"""
"1"," ""0"""
"1"," ""0"""
"1"," ""1"""
"1"," ""1"""
"1"," ""0"""
"1"," ""0"""
"1"," ""0"""
"1"," ""0"""
"1"," ""0"""
"1"," ""0"""
"1"," ""0"""
"1"," ""0"""
"1"," ""0"""
"1"," ""0"""
"1"," ""0"""
"1"," ""0"""
"1"," ""0"""
"1"," ""0"""
"1"," ""0"""
"1"," ""0"""
"1"," ""0"""
"1","
"
"1","[156]"
"1"," ""0"""
"1"," ""0"""
"1"," ""0"""
"1"," ""0"""
"1"," ""0"""
"1"," ""0"""
"1"," ""0"""
"1"," ""0"""
"1"," ""0"""
"1"," ""0"""
"1"," ""0"""
"1"," ""0"""
"1"," ""0"""
"1"," ""0"""
"1"," ""1"""
"1"," ""1"""
"1"," ""0"""
"1"," ""0"""
"1"," ""0"""
"1"," ""0"""
"1"," ""0"""
"1"," ""1"""
"1"," ""0"""
"1"," ""0"""
"1"," ""0"""
"1"," ""0"""
"1"," ""0"""
"1"," ""0"""
"1"," ""0"""
"1"," ""0"""
"1"," ""0"""
"1","
"
"1","[187]"
"1"," ""0"""
"1"," ""0"""
"1"," ""0"""
"1"," ""0"""
"1"," ""0"""
"1"," ""0"""
"1"," ""0"""
"1"," ""0"""
"1"," ""0"""
"1"," ""0"""
"1"," ""0"""
"1"," ""1"""
"1"," ""0"""
"1"," ""0"""
"1"," ""0"""
"1"," ""0"""
"1"," ""0"""
"1"," ""1"""
"1"," ""0"""
"1"," ""0"""
"1"," ""0"""
"1"," ""0"""
"1"," ""0"""
"1"," ""0"""
"1"," ""0"""
"1"," ""0"""
"1"," ""0"""
"1"," ""0"""
"1"," ""1"""
"1"," ""1"""
"1"," ""0"""
"1","
"
"1","[218]"
"1"," ""1"""
"1"," ""0"""
"1"," ""1"""
"1"," ""0"""
"1"," ""0"""
"1"," ""1"""
"1"," ""1"""
"1"," ""0"""
"1"," ""0"""
"1"," ""0"""
"1"," ""0"""
"1"," ""0"""
"1"," ""0"""
"1"," ""0"""
"1"," ""1"""
"1"," ""0"""
"1"," ""0"""
"1"," ""0"""
"1"," ""0"""
"1"," ""0"""
"1"," ""0"""
"1"," ""0"""
"1"," ""0"""
"1"," ""0"""
"1"," ""0"""
"1"," ""0"""
"1"," ""0"""
"1"," ""0"""
"1"," ""0"""
"1"," ""0"""
"1"," ""0"""
"1","
"
"1","[249]"
"1"," ""0"""
"1"," ""0"""
"1"," ""0"""
"1"," ""1"""
"1"," ""1"""
"1"," ""0"""
"1"," ""0"""
"1"," ""0"""
"1"," ""0"""
"1"," ""0"""
"1"," ""0"""
"1"," ""0"""
"1"," ""1"""
"1"," ""0"""
"1"," ""0"""
"1"," ""0"""
"1"," ""0"""
"1"," ""0"""
"1"," ""0"""
"1"," ""0"""
"1"," ""0"""
"1"," ""1"""
"1"," ""0"""
"1"," ""0"""
"1"," ""0"""
"1"," ""0"""
"1"," ""0"""
"1"," ""0"""
"1"," ""0"""
"1"," ""0"""
"1"," ""1"""
"1","
"
"1","[280]"
"1"," ""0"""
"1"," ""0"""
"1"," ""1"""
"1"," ""1"""
"1"," ""0"""
"1"," ""0"""
"1"," ""0"""
"1"," ""0"""
"1"," ""0"""
"1"," ""0"""
"1"," ""0"""
"1"," ""0"""
"1"," ""0"""
"1"," ""1"""
"1"," ""0"""
"1"," ""0"""
"1"," ""0"""
"1"," ""0"""
"1"," ""1"""
"1"," ""0"""
"1"," ""0"""
"1"," ""1"""
"1"," ""0"""
"1"," ""0"""
"1","
"
"0","as.character(cd_data$exang)"
"1","  [1]"
"1"," ""0"""
"1"," ""0"""
"1"," ""0"""
"1"," ""0"""
"1"," ""1"""
"1"," ""0"""
"1"," ""0"""
"1"," ""0"""
"1"," ""0"""
"1"," ""0"""
"1"," ""0"""
"1"," ""0"""
"1"," ""0"""
"1"," ""1"""
"1"," ""0"""
"1"," ""0"""
"1"," ""0"""
"1"," ""0"""
"1"," ""0"""
"1"," ""0"""
"1"," ""0"""
"1"," ""1"""
"1"," ""0"""
"1"," ""1"""
"1"," ""1"""
"1"," ""0"""
"1"," ""0"""
"1"," ""0"""
"1"," ""0"""
"1"," ""0"""
"1"," ""0"""
"1","
"
"1"," [32]"
"1"," ""0"""
"1"," ""0"""
"1"," ""0"""
"1"," ""1"""
"1"," ""1"""
"1"," ""0"""
"1"," ""0"""
"1"," ""0"""
"1"," ""0"""
"1"," ""0"""
"1"," ""0"""
"1"," ""1"""
"1"," ""0"""
"1"," ""0"""
"1"," ""0"""
"1"," ""0"""
"1"," ""0"""
"1"," ""0"""
"1"," ""0"""
"1"," ""0"""
"1"," ""0"""
"1"," ""0"""
"1"," ""0"""
"1"," ""0"""
"1"," ""0"""
"1"," ""0"""
"1"," ""0"""
"1"," ""0"""
"1"," ""0"""
"1"," ""0"""
"1"," ""0"""
"1","
"
"1"," [63]"
"1"," ""0"""
"1"," ""0"""
"1"," ""0"""
"1"," ""0"""
"1"," ""1"""
"1"," ""0"""
"1"," ""0"""
"1"," ""0"""
"1"," ""0"""
"1"," ""1"""
"1"," ""0"""
"1"," ""1"""
"1"," ""0"""
"1"," ""0"""
"1"," ""0"""
"1"," ""1"""
"1"," ""0"""
"1"," ""1"""
"1"," ""0"""
"1"," ""0"""
"1"," ""0"""
"1"," ""0"""
"1"," ""0"""
"1"," ""0"""
"1"," ""0"""
"1"," ""0"""
"1"," ""0"""
"1"," ""0"""
"1"," ""0"""
"1"," ""1"""
"1"," ""0"""
"1","
"
"1"," [94]"
"1"," ""1"""
"1"," ""0"""
"1"," ""1"""
"1"," ""0"""
"1"," ""0"""
"1"," ""0"""
"1"," ""0"""
"1"," ""0"""
"1"," ""0"""
"1"," ""0"""
"1"," ""0"""
"1"," ""0"""
"1"," ""0"""
"1"," ""0"""
"1"," ""1"""
"1"," ""0"""
"1"," ""0"""
"1"," ""1"""
"1"," ""0"""
"1"," ""0"""
"1"," ""0"""
"1"," ""0"""
"1"," ""0"""
"1"," ""0"""
"1"," ""0"""
"1"," ""0"""
"1"," ""1"""
"1"," ""0"""
"1"," ""0"""
"1"," ""1"""
"1"," ""0"""
"1","
"
"1","[125]"
"1"," ""0"""
"1"," ""0"""
"1"," ""0"""
"1"," ""0"""
"1"," ""0"""
"1"," ""1"""
"1"," ""0"""
"1"," ""0"""
"1"," ""0"""
"1"," ""0"""
"1"," ""0"""
"1"," ""0"""
"1"," ""0"""
"1"," ""0"""
"1"," ""1"""
"1"," ""1"""
"1"," ""0"""
"1"," ""0"""
"1"," ""0"""
"1"," ""0"""
"1"," ""0"""
"1"," ""0"""
"1"," ""0"""
"1"," ""0"""
"1"," ""0"""
"1"," ""0"""
"1"," ""0"""
"1"," ""0"""
"1"," ""0"""
"1"," ""0"""
"1"," ""0"""
"1","
"
"1","[156]"
"1"," ""0"""
"1"," ""0"""
"1"," ""0"""
"1"," ""0"""
"1"," ""0"""
"1"," ""0"""
"1"," ""0"""
"1"," ""0"""
"1"," ""0"""
"1"," ""0"""
"1"," ""1"""
"1"," ""1"""
"1"," ""0"""
"1"," ""0"""
"1"," ""1"""
"1"," ""1"""
"1"," ""0"""
"1"," ""0"""
"1"," ""0"""
"1"," ""1"""
"1"," ""1"""
"1"," ""1"""
"1"," ""0"""
"1"," ""1"""
"1"," ""1"""
"1"," ""1"""
"1"," ""0"""
"1"," ""0"""
"1"," ""0"""
"1"," ""0"""
"1"," ""0"""
"1","
"
"1","[187]"
"1"," ""1"""
"1"," ""1"""
"1"," ""0"""
"1"," ""0"""
"1"," ""1"""
"1"," ""1"""
"1"," ""0"""
"1"," ""1"""
"1"," ""0"""
"1"," ""1"""
"1"," ""0"""
"1"," ""0"""
"1"," ""1"""
"1"," ""0"""
"1"," ""0"""
"1"," ""1"""
"1"," ""1"""
"1"," ""1"""
"1"," ""0"""
"1"," ""1"""
"1"," ""1"""
"1"," ""0"""
"1"," ""0"""
"1"," ""1"""
"1"," ""0"""
"1"," ""1"""
"1"," ""0"""
"1"," ""1"""
"1"," ""1"""
"1"," ""1"""
"1"," ""0"""
"1","
"
"1","[218]"
"1"," ""1"""
"1"," ""0"""
"1"," ""1"""
"1"," ""0"""
"1"," ""1"""
"1"," ""0"""
"1"," ""1"""
"1"," ""1"""
"1"," ""1"""
"1"," ""0"""
"1"," ""1"""
"1"," ""0"""
"1"," ""1"""
"1"," ""0"""
"1"," ""0"""
"1"," ""1"""
"1"," ""1"""
"1"," ""0"""
"1"," ""1"""
"1"," ""0"""
"1"," ""0"""
"1"," ""1"""
"1"," ""1"""
"1"," ""1"""
"1"," ""1"""
"1"," ""0"""
"1"," ""1"""
"1"," ""1"""
"1"," ""0"""
"1"," ""1"""
"1"," ""1"""
"1","
"
"1","[249]"
"1"," ""0"""
"1"," ""0"""
"1"," ""1"""
"1"," ""1"""
"1"," ""0"""
"1"," ""1"""
"1"," ""0"""
"1"," ""1"""
"1"," ""1"""
"1"," ""1"""
"1"," ""1"""
"1"," ""1"""
"1"," ""1"""
"1"," ""0"""
"1"," ""1"""
"1"," ""1"""
"1"," ""1"""
"1"," ""1"""
"1"," ""1"""
"1"," ""0"""
"1"," ""1"""
"1"," ""1"""
"1"," ""0"""
"1"," ""0"""
"1"," ""0"""
"1"," ""0"""
"1"," ""1"""
"1"," ""0"""
"1"," ""0"""
"1"," ""0"""
"1"," ""0"""
"1","
"
"1","[280]"
"1"," ""1"""
"1"," ""1"""
"1"," ""1"""
"1"," ""0"""
"1"," ""0"""
"1"," ""1"""
"1"," ""1"""
"1"," ""0"""
"1"," ""0"""
"1"," ""1"""
"1"," ""1"""
"1"," ""0"""
"1"," ""0"""
"1"," ""1"""
"1"," ""0"""
"1"," ""1"""
"1"," ""1"""
"1"," ""1"""
"1"," ""0"""
"1"," ""1"""
"1"," ""0"""
"1"," ""0"""
"1"," ""1"""
"1"," ""0"""
"1","
"
"0","as.character(cd_data$thal)"
"1","  [1]"
"1"," ""Defecto Reversible"""
"1"," ""Defecto Fijo""      "
"1"," ""Defecto Fijo""      "
"1"," ""Defecto Fijo""      "
"1"," ""Defecto Fijo""      "
"1"," ""Defecto Reversible"""
"1","
"
"1","  [7]"
"1"," ""Defecto Fijo""      "
"1"," ""Normal""            "
"1"," ""Normal""            "
"1"," ""Defecto Fijo""      "
"1"," ""Defecto Fijo""      "
"1"," ""Defecto Fijo""      "
"1","
"
"1"," [13]"
"1"," ""Defecto Fijo""      "
"1"," ""Defecto Fijo""      "
"1"," ""4""                 "
"1"," ""Defecto Fijo""      "
"1"," ""Defecto Fijo""      "
"1"," ""Defecto Fijo""      "
"1","
"
"1"," [19]"
"1"," ""Defecto Fijo""      "
"1"," ""Defecto Fijo""      "
"1"," ""Normal""            "
"1"," ""Defecto Fijo""      "
"1"," ""Defecto Fijo""      "
"1"," ""Defecto Fijo""      "
"1","
"
"1"," [25]"
"1"," ""Normal""            "
"1"," ""Defecto Fijo""      "
"1"," ""Defecto Fijo""      "
"1"," ""Defecto Fijo""      "
"1"," ""Defecto Fijo""      "
"1"," ""Defecto Fijo""      "
"1","
"
"1"," [31]"
"1"," ""Defecto Fijo""      "
"1"," ""Normal""            "
"1"," ""Defecto Fijo""      "
"1"," ""Defecto Fijo""      "
"1"," ""Defecto Fijo""      "
"1"," ""Defecto Fijo""      "
"1","
"
"1"," [37]"
"1"," ""Defecto Fijo""      "
"1"," ""Normal""            "
"1"," ""Defecto Fijo""      "
"1"," ""Defecto Fijo""      "
"1"," ""Defecto Fijo""      "
"1"," ""Defecto Fijo""      "
"1","
"
"1"," [43]"
"1"," ""Defecto Fijo""      "
"1"," ""Defecto Fijo""      "
"1"," ""Defecto Fijo""      "
"1"," ""Defecto Fijo""      "
"1"," ""Defecto Fijo""      "
"1"," ""Defecto Fijo""      "
"1","
"
"1"," [49]"
"1"," ""0""                 "
"1"," ""Defecto Fijo""      "
"1"," ""Defecto Fijo""      "
"1"," ""Defecto Fijo""      "
"1"," ""Normal""            "
"1"," ""Defecto Fijo""      "
"1","
"
"1"," [55]"
"1"," ""Defecto Fijo""      "
"1"," ""Defecto Fijo""      "
"1"," ""Defecto Fijo""      "
"1"," ""Defecto Fijo""      "
"1"," ""Defecto Fijo""      "
"1"," ""Defecto Fijo""      "
"1","
"
"1"," [61]"
"1"," ""Defecto Fijo""      "
"1"," ""Normal""            "
"1"," ""Defecto Reversible"""
"1"," ""Defecto Reversible"""
"1"," ""Defecto Fijo""      "
"1"," ""Defecto Fijo""      "
"1","
"
"1"," [67]"
"1"," ""Defecto Fijo""      "
"1"," ""Defecto Fijo""      "
"1"," ""Defecto Fijo""      "
"1"," ""Defecto Fijo""      "
"1"," ""Normal""            "
"1"," ""Normal""            "
"1","
"
"1"," [73]"
"1"," ""Defecto Fijo""      "
"1"," ""Defecto Fijo""      "
"1"," ""Defecto Fijo""      "
"1"," ""Defecto Fijo""      "
"1"," ""Defecto Fijo""      "
"1"," ""Defecto Fijo""      "
"1","
"
"1"," [79]"
"1"," ""Defecto Fijo""      "
"1"," ""Normal""            "
"1"," ""Defecto Fijo""      "
"1"," ""Defecto Fijo""      "
"1"," ""Defecto Fijo""      "
"1"," ""Normal""            "
"1","
"
"1"," [85]"
"1"," ""Defecto Fijo""      "
"1"," ""Normal""            "
"1"," ""Normal""            "
"1"," ""Normal""            "
"1"," ""Defecto Fijo""      "
"1"," ""Defecto Fijo""      "
"1","
"
"1"," [91]"
"1"," ""Defecto Fijo""      "
"1"," ""Normal""            "
"1"," ""Defecto Fijo""      "
"1"," ""Defecto Fijo""      "
"1"," ""Defecto Fijo""      "
"1"," ""Normal""            "
"1","
"
"1"," [97]"
"1"," ""Defecto Fijo""      "
"1"," ""Normal""            "
"1"," ""Defecto Fijo""      "
"1"," ""Defecto Fijo""      "
"1"," ""Defecto Fijo""      "
"1"," ""Normal""            "
"1","
"
"1","[103]"
"1"," ""Defecto Fijo""      "
"1"," ""Normal""            "
"1"," ""Defecto Fijo""      "
"1"," ""Defecto Fijo""      "
"1"," ""Defecto Fijo""      "
"1"," ""Defecto Fijo""      "
"1","
"
"1","[109]"
"1"," ""Defecto Fijo""      "
"1"," ""Defecto Fijo""      "
"1"," ""Defecto Fijo""      "
"1"," ""Normal""            "
"1"," ""Normal""            "
"1"," ""Normal""            "
"1","
"
"1","[115]"
"1"," ""Defecto Fijo""      "
"1"," ""Defecto Fijo""      "
"1"," ""Defecto Fijo""      "
"1"," ""Normal""            "
"1"," ""Defecto Fijo""      "
"1"," ""Defecto Fijo""      "
"1","
"
"1","[121]"
"1"," ""Defecto Fijo""      "
"1"," ""Defecto Fijo""      "
"1"," ""Defecto Fijo""      "
"1"," ""Defecto Fijo""      "
"1"," ""Defecto Fijo""      "
"1"," ""Defecto Fijo""      "
"1","
"
"1","[127]"
"1"," ""Defecto Fijo""      "
"1"," ""Defecto Fijo""      "
"1"," ""Defecto Fijo""      "
"1"," ""Defecto Fijo""      "
"1"," ""Defecto Fijo""      "
"1"," ""Defecto Fijo""      "
"1","
"
"1","[133]"
"1"," ""Defecto Fijo""      "
"1"," ""Defecto Fijo""      "
"1"," ""Defecto Fijo""      "
"1"," ""Defecto Fijo""      "
"1"," ""Defecto Fijo""      "
"1"," ""Defecto Fijo""      "
"1","
"
"1","[139]"
"1"," ""Defecto Reversible"""
"1"," ""Normal""            "
"1"," ""Defecto Fijo""      "
"1"," ""Defecto Fijo""      "
"1"," ""Defecto Fijo""      "
"1"," ""Defecto Fijo""      "
"1","
"
"1","[145]"
"1"," ""Defecto Fijo""      "
"1"," ""Defecto Fijo""      "
"1"," ""Defecto Fijo""      "
"1"," ""Defecto Fijo""      "
"1"," ""Defecto Fijo""      "
"1"," ""Defecto Fijo""      "
"1","
"
"1","[151]"
"1"," ""Defecto Reversible"""
"1"," ""Defecto Fijo""      "
"1"," ""Normal""            "
"1"," ""Defecto Fijo""      "
"1"," ""Defecto Fijo""      "
"1"," ""Defecto Fijo""      "
"1","
"
"1","[157]"
"1"," ""Defecto Fijo""      "
"1"," ""Defecto Fijo""      "
"1"," ""Normal""            "
"1"," ""Normal""            "
"1"," ""Defecto Fijo""      "
"1"," ""Defecto Fijo""      "
"1","
"
"1","[163]"
"1"," ""Defecto Fijo""      "
"1"," ""Defecto Fijo""      "
"1"," ""Defecto Fijo""      "
"1"," ""Defecto Fijo""      "
"1"," ""Normal""            "
"1"," ""Defecto Fijo""      "
"1","
"
"1","[169]"
"1"," ""Normal""            "
"1"," ""Normal""            "
"1"," ""Defecto Reversible"""
"1"," ""Normal""            "
"1"," ""Defecto Fijo""      "
"1"," ""Normal""            "
"1","
"
"1","[175]"
"1"," ""Normal""            "
"1"," ""Normal""            "
"1"," ""Normal""            "
"1"," ""Defecto Fijo""      "
"1"," ""Normal""            "
"1"," ""Defecto Reversible"""
"1","
"
"1","[181]"
"1"," ""Normal""            "
"1"," ""Normal""            "
"1"," ""Defecto Fijo""      "
"1"," ""Normal""            "
"1"," ""Normal""            "
"1"," ""Defecto Fijo""      "
"1","
"
"1","[187]"
"1"," ""Normal""            "
"1"," ""Normal""            "
"1"," ""Normal""            "
"1"," ""Normal""            "
"1"," ""Normal""            "
"1"," ""Normal""            "
"1","
"
"1","[193]"
"1"," ""Normal""            "
"1"," ""Normal""            "
"1"," ""Defecto Fijo""      "
"1"," ""Normal""            "
"1"," ""Defecto Fijo""      "
"1"," ""Normal""            "
"1","
"
"1","[199]"
"1"," ""Normal""            "
"1"," ""Defecto Reversible"""
"1"," ""Defecto Fijo""      "
"1"," ""Normal""            "
"1"," ""Normal""            "
"1"," ""Normal""            "
"1","
"
"1","[205]"
"1"," ""Normal""            "
"1"," ""Normal""            "
"1"," ""Normal""            "
"1"," ""Normal""            "
"1"," ""Normal""            "
"1"," ""Normal""            "
"1","
"
"1","[211]"
"1"," ""Normal""            "
"1"," ""Normal""            "
"1"," ""Normal""            "
"1"," ""Normal""            "
"1"," ""Defecto Fijo""      "
"1"," ""Normal""            "
"1","
"
"1","[217]"
"1"," ""Normal""            "
"1"," ""Normal""            "
"1"," ""Normal""            "
"1"," ""Normal""            "
"1"," ""Normal""            "
"1"," ""Normal""            "
"1","
"
"1","[223]"
"1"," ""Defecto Fijo""      "
"1"," ""Normal""            "
"1"," ""Normal""            "
"1"," ""Normal""            "
"1"," ""Normal""            "
"1"," ""Normal""            "
"1","
"
"1","[229]"
"1"," ""Normal""            "
"1"," ""Normal""            "
"1"," ""Defecto Fijo""      "
"1"," ""Normal""            "
"1"," ""Normal""            "
"1"," ""Defecto Fijo""      "
"1","
"
"1","[235]"
"1"," ""Defecto Fijo""      "
"1"," ""Normal""            "
"1"," ""Normal""            "
"1"," ""Normal""            "
"1"," ""Defecto Fijo""      "
"1"," ""Normal""            "
"1","
"
"1","[241]"
"1"," ""Normal""            "
"1"," ""Defecto Fijo""      "
"1"," ""Defecto Reversible"""
"1"," ""Normal""            "
"1"," ""Defecto Reversible"""
"1"," ""Normal""            "
"1","
"
"1","[247]"
"1"," ""Normal""            "
"1"," ""Defecto Reversible"""
"1"," ""Normal""            "
"1"," ""Normal""            "
"1"," ""Normal""            "
"1"," ""Normal""            "
"1","
"
"1","[253]"
"1"," ""Defecto Fijo""      "
"1"," ""Defecto Fijo""      "
"1"," ""Defecto Fijo""      "
"1"," ""Normal""            "
"1"," ""Normal""            "
"1"," ""Normal""            "
"1","
"
"1","[259]"
"1"," ""Defecto Fijo""      "
"1"," ""Normal""            "
"1"," ""Normal""            "
"1"," ""Defecto Fijo""      "
"1"," ""Normal""            "
"1"," ""Defecto Fijo""      "
"1","
"
"1","[265]"
"1"," ""Defecto Fijo""      "
"1"," ""Defecto Fijo""      "
"1"," ""Defecto Fijo""      "
"1"," ""Defecto Fijo""      "
"1"," ""Defecto Fijo""      "
"1"," ""Normal""            "
"1","
"
"1","[271]"
"1"," ""Normal""            "
"1"," ""Defecto Fijo""      "
"1"," ""Defecto Fijo""      "
"1"," ""Normal""            "
"1"," ""Defecto Fijo""      "
"1"," ""Normal""            "
"1","
"
"1","[277]"
"1"," ""Normal""            "
"1"," ""Normal""            "
"1"," ""Defecto Fijo""      "
"1"," ""Defecto Fijo""      "
"1"," ""Defecto Reversible"""
"1"," ""0""                 "
"1","
"
"1","[283]"
"1"," ""Defecto Reversible"""
"1"," ""Normal""            "
"1"," ""Normal""            "
"1"," ""Normal""            "
"1"," ""Defecto Fijo""      "
"1"," ""Defecto Fijo""      "
"1","
"
"1","[289]"
"1"," ""Normal""            "
"1"," ""Normal""            "
"1"," ""Normal""            "
"1"," ""Defecto Reversible"""
"1"," ""Defecto Reversible"""
"1"," ""Normal""            "
"1","
"
"1","[295]"
"1"," ""Defecto Reversible"""
"1"," ""Normal""            "
"1"," ""Defecto Fijo""      "
"1"," ""Defecto Reversible"""
"1"," ""Normal""            "
"1"," ""Normal""            "
"1","
"
"1","[301]"
"1"," ""Normal""            "
"1"," ""Normal""            "
"1"," ""Defecto Fijo""      "
"1","
"
"0","as.character(cd_data$target)"
"1","  [1]"
"1"," NA"
"1"," NA"
"1"," NA"
"1"," NA"
"1"," NA"
"1"," NA"
"1"," NA"
"1"," NA"
"1"," NA"
"1"," NA"
"1"," NA"
"1"," NA"
"1"," NA"
"1"," NA"
"1"," NA"
"1"," NA"
"1"," NA"
"1"," NA"
"1"," NA"
"1"," NA"
"1"," NA"
"1"," NA"
"1"," NA"
"1"," NA"
"1"," NA"
"1"," NA"
"1"," NA"
"1"," NA"
"1"," NA"
"1"," NA"
"1"," NA"
"1"," NA"
"1"," NA"
"1"," NA"
"1"," NA"
"1"," NA"
"1"," NA"
"1"," NA"
"1"," NA"
"1"," NA"
"1"," NA"
"1"," NA"
"1","
"
"1"," [43]"
"1"," NA"
"1"," NA"
"1"," NA"
"1"," NA"
"1"," NA"
"1"," NA"
"1"," NA"
"1"," NA"
"1"," NA"
"1"," NA"
"1"," NA"
"1"," NA"
"1"," NA"
"1"," NA"
"1"," NA"
"1"," NA"
"1"," NA"
"1"," NA"
"1"," NA"
"1"," NA"
"1"," NA"
"1"," NA"
"1"," NA"
"1"," NA"
"1"," NA"
"1"," NA"
"1"," NA"
"1"," NA"
"1"," NA"
"1"," NA"
"1"," NA"
"1"," NA"
"1"," NA"
"1"," NA"
"1"," NA"
"1"," NA"
"1"," NA"
"1"," NA"
"1"," NA"
"1"," NA"
"1"," NA"
"1"," NA"
"1","
"
"1"," [85]"
"1"," NA"
"1"," NA"
"1"," NA"
"1"," NA"
"1"," NA"
"1"," NA"
"1"," NA"
"1"," NA"
"1"," NA"
"1"," NA"
"1"," NA"
"1"," NA"
"1"," NA"
"1"," NA"
"1"," NA"
"1"," NA"
"1"," NA"
"1"," NA"
"1"," NA"
"1"," NA"
"1"," NA"
"1"," NA"
"1"," NA"
"1"," NA"
"1"," NA"
"1"," NA"
"1"," NA"
"1"," NA"
"1"," NA"
"1"," NA"
"1"," NA"
"1"," NA"
"1"," NA"
"1"," NA"
"1"," NA"
"1"," NA"
"1"," NA"
"1"," NA"
"1"," NA"
"1"," NA"
"1"," NA"
"1"," NA"
"1","
"
"1","[127]"
"1"," NA"
"1"," NA"
"1"," NA"
"1"," NA"
"1"," NA"
"1"," NA"
"1"," NA"
"1"," NA"
"1"," NA"
"1"," NA"
"1"," NA"
"1"," NA"
"1"," NA"
"1"," NA"
"1"," NA"
"1"," NA"
"1"," NA"
"1"," NA"
"1"," NA"
"1"," NA"
"1"," NA"
"1"," NA"
"1"," NA"
"1"," NA"
"1"," NA"
"1"," NA"
"1"," NA"
"1"," NA"
"1"," NA"
"1"," NA"
"1"," NA"
"1"," NA"
"1"," NA"
"1"," NA"
"1"," NA"
"1"," NA"
"1"," NA"
"1"," NA"
"1"," NA"
"1"," NA"
"1"," NA"
"1"," NA"
"1","
"
"1","[169]"
"1"," NA"
"1"," NA"
"1"," NA"
"1"," NA"
"1"," NA"
"1"," NA"
"1"," NA"
"1"," NA"
"1"," NA"
"1"," NA"
"1"," NA"
"1"," NA"
"1"," NA"
"1"," NA"
"1"," NA"
"1"," NA"
"1"," NA"
"1"," NA"
"1"," NA"
"1"," NA"
"1"," NA"
"1"," NA"
"1"," NA"
"1"," NA"
"1"," NA"
"1"," NA"
"1"," NA"
"1"," NA"
"1"," NA"
"1"," NA"
"1"," NA"
"1"," NA"
"1"," NA"
"1"," NA"
"1"," NA"
"1"," NA"
"1"," NA"
"1"," NA"
"1"," NA"
"1"," NA"
"1"," NA"
"1"," NA"
"1","
"
"1","[211]"
"1"," NA"
"1"," NA"
"1"," NA"
"1"," NA"
"1"," NA"
"1"," NA"
"1"," NA"
"1"," NA"
"1"," NA"
"1"," NA"
"1"," NA"
"1"," NA"
"1"," NA"
"1"," NA"
"1"," NA"
"1"," NA"
"1"," NA"
"1"," NA"
"1"," NA"
"1"," NA"
"1"," NA"
"1"," NA"
"1"," NA"
"1"," NA"
"1"," NA"
"1"," NA"
"1"," NA"
"1"," NA"
"1"," NA"
"1"," NA"
"1"," NA"
"1"," NA"
"1"," NA"
"1"," NA"
"1"," NA"
"1"," NA"
"1"," NA"
"1"," NA"
"1"," NA"
"1"," NA"
"1"," NA"
"1"," NA"
"1","
"
"1","[253]"
"1"," NA"
"1"," NA"
"1"," NA"
"1"," NA"
"1"," NA"
"1"," NA"
"1"," NA"
"1"," NA"
"1"," NA"
"1"," NA"
"1"," NA"
"1"," NA"
"1"," NA"
"1"," NA"
"1"," NA"
"1"," NA"
"1"," NA"
"1"," NA"
"1"," NA"
"1"," NA"
"1"," NA"
"1"," NA"
"1"," NA"
"1"," NA"
"1"," NA"
"1"," NA"
"1"," NA"
"1"," NA"
"1"," NA"
"1"," NA"
"1"," NA"
"1"," NA"
"1"," NA"
"1"," NA"
"1"," NA"
"1"," NA"
"1"," NA"
"1"," NA"
"1"," NA"
"1"," NA"
"1"," NA"
"1"," NA"
"1","
"
"1","[295]"
"1"," NA"
"1"," NA"
"1"," NA"
"1"," NA"
"1"," NA"
"1"," NA"
"1"," NA"
"1"," NA"
"1"," NA"
"1","
"
"0","str(cd_data)"
"1","'data.frame':	"
"1",""
"1","303"
"1",""
"1"," obs. of  "
"1",""
"1","14"
"1",""
"1"," variable"
"1",""
"1","s"
"1",""
"1",":"
"1",""
"1","
"
"1"," "
"1",""
"1","$ "
"1",""
"1","age     "
"1",""
"1",":"
"1"," num  "
"1",""
"1","63 37 41 56 57 57 56 44 52 57"
"1",""
"1"," ..."
"1",""
"1","
"
"1"," "
"1",""
"1","$ "
"1",""
"1","sex     "
"1",""
"1",":"
"1"," chr  "
"1",""
"1","NA NA NA NA"
"1",""
"1"," ..."
"1",""
"1","
"
"1"," "
"1",""
"1","$ "
"1",""
"1","cp      "
"1",""
"1",":"
"1"," chr  "
"1",""
"1",""","" "","" "","" "","""
"1",""
"1"," ..."
"1",""
"1","
"
"1"," "
"1",""
"1","$ "
"1",""
"1","trestbps"
"1",""
"1",":"
"1"," num  "
"1",""
"1","145 130 130 120 120 140 140 120 172 150"
"1",""
"1"," ..."
"1",""
"1","
"
"1"," "
"1",""
"1","$ "
"1",""
"1","chol    "
"1",""
"1",":"
"1"," num  "
"1",""
"1","233 250 204 236 354 192 294 263 199 168"
"1",""
"1"," ..."
"1",""
"1","
"
"1"," "
"1",""
"1","$ "
"1",""
"1","fbs     "
"1",""
"1",":"
"1"," int  "
"1",""
"1","1 0 0 0 0 0 0 0 1 0"
"1",""
"1"," ..."
"1",""
"1","
"
"1"," "
"1",""
"1","$ "
"1",""
"1","restecg "
"1",""
"1",":"
"1"," num  "
"1",""
"1","0 1 0 1 1 1 0 1 1 1"
"1",""
"1"," ..."
"1",""
"1","
"
"1"," "
"1",""
"1","$ "
"1",""
"1","thalach "
"1",""
"1",":"
"1"," num  "
"1",""
"1","150 187 172 178 163 148 153 173 162 174"
"1",""
"1"," ..."
"1",""
"1","
"
"1"," "
"1",""
"1","$ "
"1",""
"1","exang   "
"1",""
"1",":"
"1"," int  "
"1",""
"1","0 0 0 0 1 0 0 0 0 0"
"1",""
"1"," ..."
"1",""
"1","
"
"1"," "
"1",""
"1","$ "
"1",""
"1","oldpeak "
"1",""
"1",":"
"1"," num  "
"1",""
"1","2.3 3.5 1.4 0.8 0.6 0.4 1.3 0 0.5 1.6"
"1",""
"1"," ..."
"1",""
"1","
"
"1"," "
"1",""
"1","$ "
"1",""
"1","slope   "
"1",""
"1",":"
"1"," num  "
"1",""
"1","0 0 2 2 2 1 1 2 2 2"
"1",""
"1"," ..."
"1",""
"1","
"
"1"," "
"1",""
"1","$ "
"1",""
"1","ca      "
"1",""
"1",":"
"1"," num  "
"1",""
"1","0 0 0 0 0 0 0 0 0 0"
"1",""
"1"," ..."
"1",""
"1","
"
"1"," "
"1",""
"1","$ "
"1",""
"1","thal    "
"1",""
"1",":"
"1"," chr  "
"1",""
"1","""Defecto Reversible"" ""Defecto Fijo"" ""Defecto Fijo"" ""Defecto Fijo"""
"1",""
"1"," ..."
"1",""
"1","
"
"1"," "
"1",""
"1","$ "
"1",""
"1","target  "
"1",""
"1",":"
"1"," chr  "
"1",""
"1","NA NA NA NA"
"1",""
"1"," ..."
"1",""
"1","
"
