"0","# Las variables cualitativas deben ser de tipo ""factor""."
"0","# Por lo anterior se cambia su tipo de dato."
"0","cd_data$sex <- as.factor(cd_data$sex)"
"0","cd_data$cp <- as.factor(cd_data$cp)"
"0","cd_data$fbs <- as.factor(cd_data$fbs)"
"0","cd_data$restecg <- as.factor(cd_data$restecg) "
"0","cd_data$exang <- as.factor(cd_data$exang)"
"0","cd_data$slope <- as.factor(cd_data$slope)"
"0","cd_data$ca <- as.factor(cd_data$ca)"
"0","cd_data$thal <- as.factor(cd_data$thal)"
"0","cd_data$target <- as.factor(cd_data$target)"
"0",""
"0","# Corroboración de que se han cambiado todos los tipos de dato."
"0","# Además, impresión de los datos de manera correcta."
"0","str(cd_data)"
"1","'data.frame':	"
"1",""
"1","303"
"1",""
"1"," obs. of  "
"1",""
"1","14"
"1",""
"1"," variable"
"1",""
"1","s"
"1",""
"1",":"
"1",""
"1","
"
"1"," "
"1",""
"1","$ "
"1",""
"1","age     "
"1",""
"1",":"
"1"," int  "
"1",""
"1","63 37 41 56 57 57 56 44 52 57"
"1",""
"1"," ..."
"1",""
"1","
"
"1"," "
"1",""
"1","$ "
"1",""
"1","sex     "
"1",""
"1",":"
"1"," Factor w/ 2 levels ""0"",""1"": "
"1",""
"1","2 2 1 2 1 2 1 2 2 2"
"1",""
"1"," ..."
"1",""
"1","
"
"1"," "
"1",""
"1","$ "
"1",""
"1","cp      "
"1",""
"1",":"
"1"," Factor w/ 4 levels ""0"",""1"",""2"",""3"": "
"1",""
"1","4 3 2 2 1 1 2 2 3 3"
"1",""
"1"," ..."
"1",""
"1","
"
"1"," "
"1",""
"1","$ "
"1",""
"1","trestbps"
"1",""
"1",":"
"1"," int  "
"1",""
"1","145 130 130 120 120 140 140 120 172 150"
"1",""
"1"," ..."
"1",""
"1","
"
"1"," "
"1",""
"1","$ "
"1",""
"1","chol    "
"1",""
"1",":"
"1"," int  "
"1",""
"1","233 250 204 236 354 192 294 263 199 168"
"1",""
"1"," ..."
"1",""
"1","
"
"1"," "
"1",""
"1","$ "
"1",""
"1","fbs     "
"1",""
"1",":"
"1"," Factor w/ 2 levels ""0"",""1"": "
"1",""
"1","2 1 1 1 1 1 1 1 2 1"
"1",""
"1"," ..."
"1",""
"1","
"
"1"," "
"1",""
"1","$ "
"1",""
"1","restecg "
"1",""
"1",":"
"1"," Factor w/ 3 levels ""0"",""1"",""2"": "
"1",""
"1","1 2 1 2 2 2 1 2 2 2"
"1",""
"1"," ..."
"1",""
"1","
"
"1"," "
"1",""
"1","$ "
"1",""
"1","thalach "
"1",""
"1",":"
"1"," int  "
"1",""
"1","150 187 172 178 163 148 153 173 162 174"
"1",""
"1"," ..."
"1",""
"1","
"
"1"," "
"1",""
"1","$ "
"1",""
"1","exang   "
"1",""
"1",":"
"1"," Factor w/ 2 levels ""0"",""1"": "
"1",""
"1","1 1 1 1 2 1 1 1 1 1"
"1",""
"1"," ..."
"1",""
"1","
"
"1"," "
"1",""
"1","$ "
"1",""
"1","oldpeak "
"1",""
"1",":"
"1"," num  "
"1",""
"1","2.3 3.5 1.4 0.8 0.6 0.4 1.3 0 0.5 1.6"
"1",""
"1"," ..."
"1",""
"1","
"
"1"," "
"1",""
"1","$ "
"1",""
"1","slope   "
"1",""
"1",":"
"1"," Factor w/ 3 levels ""0"",""1"",""2"": "
"1",""
"1","1 1 3 3 3 2 2 3 3 3"
"1",""
"1"," ..."
"1",""
"1","
"
"1"," "
"1",""
"1","$ "
"1",""
"1","ca      "
"1",""
"1",":"
"1"," Factor w/ 5 levels ""0"",""1"",""2"",""3"",..: "
"1",""
"1","1 1 1 1 1 1 1 1 1 1"
"1",""
"1"," ..."
"1",""
"1","
"
"1"," "
"1",""
"1","$ "
"1",""
"1","thal    "
"1",""
"1",":"
"1"," Factor w/ 5 levels ""0"",""1"",""2"",""3"",..: "
"1",""
"1","2 3 3 3 3 2 3 4 4 3"
"1",""
"1"," ..."
"1",""
"1","
"
"1"," "
"1",""
"1","$ "
"1",""
"1","target  "
"1",""
"1",":"
"1"," Factor w/ 2 levels ""0"",""1"": "
"1",""
"1","2 2 2 2 2 2 2 2 2 2"
"1",""
"1"," ..."
"1",""
"1","
"
