"0","# extrae 150 lineas del dataset para las primera 4 columnas"
"0","matriz <- as.matrix(cd_data[1:150, 1:4])"
"0","# Matrix transpuesta"
"0","transp <- t(matriz)[, nrow(matriz):1]"
"0",""
"0","# Genera el mapa de calor"
"0","image(1:4, 1:150, transp, xlab = ""Columnas"", ylab = ""Filas"")"
"2","Error in image.default(1:4, 1:150, transp, xlab = ""Columnas"", ylab = ""Filas"") : 
  'z' must be numeric or logical
"
