"0","# Creación de un ""subconjunto"" de los datos para trabajar solo con las variables"
"0","# cuantitativas del cd_data."
"0","col <- c(""age"", ""trestbps"", ""chol"", ""thalach"", ""oldpeak"")"
"0","quantitative <- cd_data[ , (names(cd_data) %in% col)]"
"0",""
"0","# Generación del gráfico de las correlaciones."
"0","ggpairs(data=quantitative[1: 5], "
"0","title = ""Correlation Cardiovascular Disease"","
"0","upper = list(continuous = wrap(""cor"", size=5)),"
"0","lower = list(continuous = ""smooth""))"
